<?xml version="1.0"?>
<svg xmlns="http://www.w3.org/2000/svg" xmlns:xlink="http://www.w3.org/1999/xlink" xmlns:svgjs="http://svgjs.com/svgjs" version="1.1" width="512" height="512" x="0" y="0" viewBox="0 0 612 612" style="enable-background:new 0 0 512 512" xml:space="preserve" class=""><g>
<g xmlns="http://www.w3.org/2000/svg">
	<g id="_x31_0_23_">
		<g>
			<path d="M306,0C136.992,0,0,136.992,0,306s136.992,306,306,306c168.988,0,306-137.012,306-306S475.008,0,306,0z M414.19,387.147     c7.478,7.478,7.478,19.584,0,27.043c-7.479,7.478-19.584,7.478-27.043,0l-81.032-81.033l-81.588,81.588     c-7.535,7.516-19.737,7.516-27.253,0c-7.535-7.535-7.535-19.737,0-27.254l81.587-81.587l-81.033-81.033     c-7.478-7.478-7.478-19.584,0-27.042c7.478-7.478,19.584-7.478,27.042,0l81.033,81.033l82.181-82.18     c7.535-7.535,19.736-7.535,27.253,0c7.535,7.535,7.535,19.737,0,27.253l-82.181,82.181L414.19,387.147z" fill="#ffffff" data-original="#000000" style="" class=""/>
		</g>
	</g>
</g>
<g xmlns="http://www.w3.org/2000/svg">
</g>
<g xmlns="http://www.w3.org/2000/svg">
</g>
<g xmlns="http://www.w3.org/2000/svg">
</g>
<g xmlns="http://www.w3.org/2000/svg">
</g>
<g xmlns="http://www.w3.org/2000/svg">
</g>
<g xmlns="http://www.w3.org/2000/svg">
</g>
<g xmlns="http://www.w3.org/2000/svg">
</g>
<g xmlns="http://www.w3.org/2000/svg">
</g>
<g xmlns="http://www.w3.org/2000/svg">
</g>
<g xmlns="http://www.w3.org/2000/svg">
</g>
<g xmlns="http://www.w3.org/2000/svg">
</g>
<g xmlns="http://www.w3.org/2000/svg">
</g>
<g xmlns="http://www.w3.org/2000/svg">
</g>
<g xmlns="http://www.w3.org/2000/svg">
</g>
<g xmlns="http://www.w3.org/2000/svg">
</g>
</g></svg>
